 ____   ____                      _             __                 _        _______    _____
|_  _| |_  _|                    / |_          [  |  _            / \      |_   __ \  |_   _|
  \ \   / /    ,--.     _   __  `| |-'  .---.   | | / ]          / _ \       | |__) |   | |
   \ \ / /    `'_\ :   [ \ [  ]  | |   / /__\\  | '' <          / ___ \      |  ___/    | |
    \ ' /     // | |,   \ '/ /   | |,  | \__.,  | |`\ \       _/ /   \ \_   _| |_      _| |_
     \_/      \'-;__/ [\_:  /    \__/   '.__.' [__|  \_]     |____| |____| |_____|    |_____|
                       \__.'